****************** Optimal control iteration #   12 ******************
       => J1       =      0.87422
       => J        =      0.54591
       => J2       =     -0.32830
       => Fluence  =      0.32830
       => Penalty  =      1.00000
       => D[e,e']  =     2.19E-04
**********************************************************************
