CalculationMode = td

Dimensions = 3
FromScratch = YES

ExperimentalFeatures = YES

#############################
# GS
#############################

SICCorrection = sic_adsic

%Coordinates
 "Na" | 0.0 | 0.0 | 0.0
%

BoxShape = sphere
Radius = 20
Spacing = 0.7

#############################
# Boundaries
#############################
AbsorbingBoundaries = cap
%ABShape
 15 | Radius
%
ABCapHeight = -1.0

#############################
# PES
#############################
PhotoElectronSpectrum = pes_spm

PES_SPM_OmegaMax = 1.5
PES_SPM_DeltaOmega = 0.025
PES_SPM_StepsThetaR = 30
PES_SPM_StepsPhiR = 30
PES_SPM_Radius = 15

##########################
#LASER
##########################

amplitude = 1.1763
omega = 1.194838

tc = 2*pi/omega
nc = 15
nu = 2
ntot = nc + 2*nu

%TDExternalFields
  vector_potential | 0 | 0 | 1 | omega | "ramp"
%

%TDFunctions
 "ramp" | tdf_trapezoidal | amplitude | nc*tc | (nc+2*nu)*tc/2 | nu*tc
%

#############################
# TD
#############################

TDTimeStep = 1.0
TDPropagator = exp_mid
TDExponentialMethod = lanczos

TDPropagationTime = ntot*tc

#############################
# Output
#############################
OutputInterval = 1000
RestartWrite = no
