# snippet_start calc_mode
CalculationMode = td
# snippet_end

# snippet_start system
ExperimentalFeatures = yes
%Systems
  'Maxwell' | maxwell
%
# snippet_end

# snippet_start box
Maxwell.Dimensions = 3
Maxwell.BoxShape = parallelepiped

lsize_mx = 12.0
dx_mx = 0.5

# Half of the box size in each dimension
%Maxwell.Lsize
lsize_mx | lsize_mx | lsize_mx
%

# Grid spacing in each dimension
%Maxwell.Spacing
dx_mx | dx_mx | dx_mx
%
# snippet_end

# snippet_start maxwell_calc
MaxwellHamiltonianOperator = faraday_ampere

# Boundary conditions for each dimension (zero, constant or plane waves)
%MaxwellBoundaryConditions
plane_waves | plane_waves | plane_waves
%


# Absorbing boundaries option (not absorbing, mask or CPML)s
%MaxwellAbsorbingBoundaries
cpml | cpml | cpml
%

# Absorbing boundary width for the mask or CPML boundaries
MaxwellABWidth = 5.0

# Parameters to tune the Maxwell PML (they have safe defaults)
MaxwellABPMLPower = 2.0
MaxwellABPMLReflectionError = 1e-16
# snippet_end


# snippet_start output2
# Full space-resolved outputs, to be written to the Maxwell/output_iter folder,
# every MaxwellOutputInterval steps (Check variable documentation for full list of possible options)
%MaxwellOutput
  electric_field | axis_z
  magnetic_field | plane_x
%

MaxwellOutputInterval = 10

# Output of the scalar Maxwell variables for each time step, written into the td.general folder
# (the fields are evaluated at all MaxwellFieldsCoordinate points)
MaxwellTDOutput = maxwell_energy + maxwell_total_e_field

# Coordinates of the grid points, which corresponding electromagnetic field values are
# written into td.general/maxwell_fields
%MaxwellFieldsCoordinate
0.00 | 0.00 | 0.00
1.00 | 0.00 | 1.00
%
# snippet_end

# snippet_start timestep
TDSystemPropagator = exp_mid

# TDTimeStep should be equal or smaller than the Courant criterion, which is here
# S_Courant = 1 / (sqrt(c^2/dx_mx^2 + c^2/dx_mx^2 + c^2/dx_mx^2))
TDTimeStep = 0.002

# Total simulation time
TDPropagationTime = 0.4
# snippet_end

# snippet_start field
# ----- Maxwell field variables -----------------------------------------------------------------

# Plane waves input block
%MaxwellIncidentWaves
plane_wave_mx_function | electric_field | Ex1 | Ey1 | Ez1 | "plane_waves_func_1"
%

# Predefined envelope function
%MaxwellFunctions
"plane_waves_func_1" | mxf_cosinoidal_wave | kx1 | ky1 | kz1 | psx1 | psy1 | psz1 | pw1
%

# Definition of the initial EM field inside the box:
# (can be an arbitrary formula, from a file, or using the info from the MaxwellIncidentWaves block)
%UserDefinedInitialMaxwellStates
  use_incident_waves
%

# If incident plane waves should be evaluated analytically inside the simulation box
# (disabling Maxwell propagation, only direct evaluation)
MaxwellPlaneWavesInBox = no
# snippet_end

# snippet_start ext_current
# Switch on external current density
ExternalCurrent = yes

# External current profile parameters (spatial profile formulas, frequency and envelope function name)
%UserDefinedMaxwellExternalCurrent
current_td_function | "jx(x.y,z)" | "jy(x,y,z)" | "jz(x,y,z)" | omega | "env_func"
%

# Envelope function in time for the external current density
%TDFunctions
"env_func” | tdf_gaussian | 1.0 | tw | t0
%
# snippet_end

# snippet_start inst_field
# for this feature to work, boundaries must be set to constant
%MaxwellBoundaryConditions
constant | constant | constant
%

Ez           = 0.00001
By           = 0.00001
pulse_width  = 500.0
pulse_shift  = 270.0
pulse_slope  = 100.0

%UserDefinedConstantSpatialMaxwellField
0 | 0 | Ez | 0 | By | 0 | "time_function"
%

%TDFunctions
"time_function" | tdf_logistic | 1.0 | pulse_slope | pulse_width | pulse_shift
%
# snippet_end
