# -*- coding: utf-8 mode: shell-script -*-

CalculationMode = gs
fromScratch = yes

Radius = 7.0
Spacing = 0.5
%Coordinates
  "Na" | 0 | 0 | 0.0
%
SpinComponents = non_collinear
GuessMagnetDensity = user_defined
%AtomsMagnetDirection
 1 | 1 | 0
%
Eigensolver = plan
EigensolverTolerance = 1e-12
EigensolverMaxIter = 200
ConvEigenError = yes

PseudopotentialSet = hgh_lda

# Fix the Poisson solver to avoid GPU-CPU discrepancy
PoissonSolver = isf
