CalculationMode = test
TestMode = derivatives
Debug = info

PeriodicDimensions = 3

a = 6
b = 6
c = 6

%LatticeParameters
  a | b | c
%

%LatticeVectors
 -0.5 |  0.5 |  0.5
  0.5 | -0.5 |  0.5
  0.5 |  0.5 | -0.5
%

%ReducedCoordinates
 "H" |   0.0    | 0.0     | 0.0
%

%Spacing
  a/20 | b/20 | c/20
%


TestRepetitions = 1

TestMaxBlockSize = 2
