CalculationMode = test
TestMode = regridding

%Systems
  "A" | electronic
  "B" | electronic
%

%Coordinates
"C" | 0.0 | 0.0 |  0.0
%

Spacing = 0.3*angstrom

A.BoxShape = parallelepiped
%A.Lsize
  3.0*angstrom | 3.0*angstrom | 3.0*angstrom
%

B.BoxShape = sphere
B.Radius  = 4.0*angstrom
