CalculationMode = test
TestMode = regridding
PeriodicDimensions = 3
DebugTrapSignals = no

%Systems
  "A" | electronic
  "B" | electronic
%

%Coordinates
"C" | 0.0 | 0.0 |  0.0
%

BoxShape = parallelepiped
A.ParStates = 1
A.ParKPoints = 1

a = 3.0*angstrom
b = a
c = a
resolution = 9
%A.Spacing
 a/resolution | b/resolution | c/resolution
%

%LatticeParameters
  a | b | c
%

%LatticeVectors
1/sqrt(2) |-1/sqrt(2) | 0
1/sqrt(2) | 1/sqrt(2) | 0
0 | 0 | 1
%

eta = 3
%B.Spacing
 a/resolution*eta | b/resolution*eta | c/resolution*eta
%
B.ParDomains = 2
