CalculationMode = test
testmode = helmholtz_decomposition

%Coordinates
"Na" | 0.0 | 0.0 |  0.0
%

# System Box
BoxShape = parallelepiped
Lsize  = 1.5

Spacing = 0.25

DerivativesOrder = 4
PoissonSolver = cg
PoissonSolverMaxIter = 1000
SurfaceCorrection = no
HelmholtzEnforceCoulombGauge = yes
HelmholtzCoulombGaugeTolerance = 1e-9
