CalculationMode = unocc

PeriodicDimensions = 3

BoxShape = parallelepiped

ExperimentalFeatures = yes

Smearing = 0.01
SmearingFunction = fermi_dirac

EigenSolver = rmmdiis

a = 7.8809

%Species
"Ni" | species_pseudo | hubbard_l | 2 | hubbard_u | 5.0/27.21138
%
DFTULevel = dft_u_empirical
DFTUDoubleCounting = dft_u_mix

PseudopotentialSet=hscv_pbe

%LatticeParameters
  a | a | a
%

%LatticeVectors
 0.0 | 1/2 | 1/2
 1/2 | 0.0 | 1/2
 1.0 | 1.0 | 0.0
%

%ReducedCoordinates
 "Ni" | 0.0 | 0.0 | 0.0
 "Ni" | 0.0 | 0.0 | 0.5
 "O"  | 0.5 | 0.5 | 0.25
 "O"  | 0.5 | 0.5 | 0.75
%

Spacing = a/18.1

FromScratch = yes

SpinComponents = polarized

%KPointsPath
 4
 0 | 0 | 0 #Gamma
-0.03124 | -0.03125 | -0.54167 #  L
%

ExtraStates = 3
ExtraStatesToConverge = 1
MaximumIter = 20

AOTruncation = ao_box
%Output
  occ_matrices
%

DFTUPoissonSolver = dft_u_poisson_direct

SCFCalculateForces = no
