CalculationMode = gs
ExperimentalFeatures = yes

dist = 3.0

%Species
 "Na" | species_pseudo | set | standard | hubbard_l | 0 | hubbard_u | 2.0/27.21138
%

%Coordinates
'Na'  | 0 | 0 | -dist
'Na'  | 0 | 0 |  dist
%

Radius = 6.5
Spacing = 0.6

FromScratch = yes

FilterPotentials = filter_none

MixField = density

Eigensolver = chebyshev_filter
ExtraStates = 3

DFTULevel = dft_u_acbn0
AOThreshold = 0.05
AONormalize = no

ACBN0IntersiteInteraction = yes
ACBN0IntersiteCutoff = 7
%Output
  effectiveU
%

DFTUPoissonSolver = dft_u_poisson_isf

# Fix the Poisson solver to avoid GPU-CPU discrepancy
PoissonSolver = isf

