FromScratch = yes
DisableAccel = yes
ExperimentalFeatures = yes

CalculationMode = td

%Coordinates
 "H" | -0.5 | 0.0 | 0.0
 "H" |  0.5 | 0.0 | 0.0
%

%Velocities
 "H" | 0.1618 | 0.0    | 0.0
 "H" | 0.0    | 0.0809 | 0.0
%

Spacing=0.55

Radius=8

ParStates = no

TDTimeStep = 0.1
TDMaxSteps = 40

MoveIons = yes
IonsConstantVelocity = yes

RecalculateGSDuringEvolution = yes
RestartWriteInterval = 10

PoissonSolver = isf
