CalculationMode = td

PseudopotentialSet = hgh_lda 

%Coordinates
'Be'  | -1.4646408*angstrom | 0 | 0 
'Be'  |  1.4646408*angstrom | 0 | 0
%

FromScratch = yes

Spacing = 0.32*angstrom
Radius = 4.0*angstrom

FilterPotentials = filter_none

PoissonSolver = isf

SICCorrection = sic_adsic


TDTimeStep = 0.1
TDMaxSteps = 100
TDDeltaStrength = 0.2
TDPolarizationDirection = 1

ExperimentalFeatures = yes
TDFreezeOrbitals = 1
ParStates = no

%TDOutput
  multipoles
  dipole_acceleration
  dipole_velocity
  populations
  td_occup
  ionization_channels
  eigenvalues
  angular
%
TDProjStateStart = 1
