CalculationMode = gs

XYZCoordinates = "10-vdw_d3_dna.xyz"

PeriodicDimensions = 3

%LatticeParameters
 8.0 * angstrom | 8.0 * angstrom | 15.0 * angstrom
 90 | 90 | 90
%

BoxShape = parallelepiped

Spacing = 0.65

SCFCalculatePartialCharges = yes

ExperimentalFeatures = yes

ExtraStates = 20
