CalculationMode = gs

Dimensions = 1

Radius = 7
Spacing = 0.15

# local potential v(x)=-2/(1+x^2)^(1/2) (Z_He=2)
%Species
  "1dhelium" | species_user_defined | potential_formula | "-2/(1+x^2)^(1/2)" | valence | 2
%

%Coordinates
  "1dhelium" | 0
%

ExtraStates = 6

ConvRelDens = 1e-8

TheoryLevel = hartree_fock

ExperimentalFeatures = yes

PoissonSolver = direct_sum
