CalculationMode = gs
ExperimentalFeatures = yes
FromScratch = yes

PeriodicDimensions = 3

a = 6.74065308785213

Spacing = 0.4


%LatticeParameters
  a | a | a
%


%LatticeVectors
 0.  | 0.5 | 0.5
 0.5 | 0.  | 0.5
 0.5 | 0.5 | 0.0
%

%ReducedCoordinates
 "C" |   0.0    | 0.0     | 0.0
 "C" |   1/4    | 1/4     | 1/4
%

ExtraStates = 4
ConvRelDens = 1e-7
ConvEigenError = yes

%Output
 matrix_elements
%
%OutputMatrixElements
  dipole
%
OutputMEStart = 2
OutputMEEnd = 7

%KpointsReduced
 0.0370   |  0.0000   |   0.0000  |    0.0000
 0.0370   |  0.0000   |   0.0000  |    0.3333
 0.0370   |  0.0000   |   0.0000  |   -0.3333
 0.0370   |  0.0000   |   0.3333  |    0.0000
 0.0370   |  0.0000   |  -0.3333  |    0.0000
 0.0370   |  0.3333   |   0.0000  |    0.0000
 0.0370   | -0.3333   |   0.0000  |    0.0000
 0.0370   |  0.0000   |   0.3333  |    0.3333
 0.0370   |  0.0000   |   0.3333  |   -0.3333
 0.0370   |  0.0000   |  -0.3333  |    0.3333
 0.0370   |  0.3333   |   0.0000  |    0.3333
 0.0370   |  0.0000   |  -0.3333  |   -0.3333
 0.0370   |  0.3333   |   0.0000  |   -0.3333
 0.0370   |  0.3333   |   0.3333  |    0.0000
 0.0370   |  0.3333   |  -0.3333  |    0.0000
 0.0370   | -0.3333   |   0.0000  |    0.3333
 0.0370   | -0.3333   |   0.0000  |   -0.3333
 0.0370   | -0.3333   |   0.3333  |    0.0000
 0.0370   | -0.3333   |  -0.3333  |    0.0000
 0.0370   |  0.3333   |   0.3333  |    0.3333
 0.0370   |  0.3333   |   0.3333  |   -0.3333
 0.0370   |  0.3333   |  -0.3333  |    0.3333
 0.0370   |  0.3333   |  -0.3333  |   -0.3333
 0.0370   | -0.3333   |   0.3333  |    0.3333
 0.0370   | -0.3333   |   0.3333  |   -0.3333
 0.0370   | -0.3333   |  -0.3333  |    0.3333
 0.0370   | -0.3333   |  -0.3333  |   -0.3333
0.000000 | 0.500000 | 0.500000 | 0.500000
0.000000 | 0.486111 | 0.486111 | 0.527778
0.000000 | 0.472222 | 0.472222 | 0.555556
0.000000 | 0.458333 | 0.458333 | 0.583333
0.000000 | 0.444444 | 0.444444 | 0.611111
0.000000 | 0.430556 | 0.430556 | 0.638889
0.000000 | 0.416667 | 0.416667 | 0.666667
0.000000 | 0.402778 | 0.402778 | 0.694444
0.000000 | 0.388889 | 0.388889 | 0.722222
0.000000 | 0.375000 | 0.375000 | 0.750000
0.000000 | 0.625000 | 0.250000 | 0.625000
0.000000 | 0.625000 | 0.250000 | 0.625000
0.000000 | 0.500000 | 0.250000 | 0.750000
0.000000 | 0.500000 | 0.250000 | 0.750000
0.000000 | 0.444444 | 0.222222 | 0.666667
0.000000 | 0.388889 | 0.194444 | 0.583333
0.000000 | 0.333333 | 0.166667 | 0.500000
0.000000 | 0.277778 | 0.138889 | 0.416667
0.000000 | 0.222222 | 0.111111 | 0.333333
0.000000 | 0.166667 | 0.083333 | 0.250000
0.000000 | 0.111111 | 0.055556 | 0.166667
0.000000 | 0.055556 | 0.027778 | 0.083333
0.000000 | 0.000000 | 0.000000 | 0.000000
0.000000 | 0.000000 | 0.000000 | 0.000000
0.000000 | 0.071429 | 0.000000 | 0.071429
0.000000 | 0.142857 | 0.000000 | 0.142857
0.000000 | 0.214286 | 0.000000 | 0.214286
0.000000 | 0.285714 | 0.000000 | 0.285714
0.000000 | 0.357143 | 0.000000 | 0.357143
0.000000 | 0.428571 | 0.000000 | 0.428571
0.000000 | 0.500000 | 0.000000 | 0.500000
0.000000 | 0.500000 | 0.000000 | 0.500000
0.000000 | 0.500000 | 0.083333 | 0.583333
0.000000 | 0.500000 | 0.166667 | 0.666667
0.000000 | 0.500000 | 0.250000 | 0.750000
0.000000 | 0.500000 | 0.250000 | 0.750000
0.000000 | 0.500000 | 0.333333 | 0.666667
0.000000 | 0.500000 | 0.416667 | 0.583333
0.000000 | 0.500000 | 0.500000 | 0.500000
0.000000 | 0.500000 | 0.500000 | 0.500000
0.000000 | 0.444444 | 0.444444 | 0.444444
0.000000 | 0.388889 | 0.388889 | 0.388889
0.000000 | 0.333333 | 0.333333 | 0.333333
0.000000 | 0.277778 | 0.277778 | 0.277778
0.000000 | 0.222222 | 0.222222 | 0.222222
0.000000 | 0.166667 | 0.166667 | 0.166667
0.000000 | 0.111111 | 0.111111 | 0.111111
0.000000 | 0.055556 | 0.055556 | 0.055556
0.000000 | 0.000000 | 0.000000 | 0.000000
0.000000 | 0.000000 | 0.000000 | 0.000000
0.000000 | 0.041667 | 0.041667 | 0.083333
0.000000 | 0.083333 | 0.083333 | 0.166667
0.000000 | 0.125000 | 0.125000 | 0.250000
0.000000 | 0.166667 | 0.166667 | 0.333333
0.000000 | 0.208333 | 0.208333 | 0.416667
0.000000 | 0.250000 | 0.250000 | 0.500000
0.000000 | 0.291667 | 0.291667 | 0.583333
0.000000 | 0.333333 | 0.333333 | 0.666667
0.000000 | 0.375000 | 0.375000 | 0.750000
0.000000 | 0.625000 | 0.250000 | 0.625000
0.000000 | 0.625000 | 0.250000 | 0.625000
0.000000 | 0.609375 | 0.218750 | 0.609375
0.000000 | 0.593750 | 0.187500 | 0.593750
0.000000 | 0.578125 | 0.156250 | 0.578125
0.000000 | 0.562500 | 0.125000 | 0.562500
0.000000 | 0.546875 | 0.093750 | 0.546875
0.000000 | 0.531250 | 0.062500 | 0.531250
0.000000 | 0.515625 | 0.031250 | 0.515625
0.000000 | 0.500000 | 0.000000 | 0.500000
%
