#FromScratch=yes

CalculationMode = gs

PeriodicDimensions = 3

a = 10.2

BoxShape = parallelepiped
%LatticeParameters
 a | a | a
 90 | 90 | 90
%
Spacing = a/14

%ReducedCoordinates
  "Si" |   0.0       | 0.0       | 0.0
  "Si" |   1/2       | 1/2       | 0.0
  "Si" |   1/2       | 0.0       | 1/2
  "Si" |   0.0       | 1/2       | 1/2
  "Si" |   1/4       | 1/4       | 1/4
  "Si" |   1/4 + 1/2 | 1/4 + 1/2 | 1/4
  "Si" |   1/4 + 1/2 | 1/4       | 1/4 + 1/2
  "Si" |   1/4       | 1/4 + 1/2 | 1/4 + 1/2
%

%StaticElectricField
 1 | 0 | 0
%


ExtraStates = 10

EigensolverMaxIter = 50
EigensolverTolerance = 1e-8
CGEnergyChangeThreshold = 1e-4
MaximumIterBerry = 10
MaximumIter = 500

MixingRestart = 0
MixNumberSteps = 3

LCAOSaveMemory = yes
